{
  "name": "RequisitionQualificationDetails",
  "base": "PersistedModel",
  "idInjection": true,
  "options": {
    "validateUpsert": true
  },
  "properties": {
    "educationalQualification": {
      "type": "string",
      "required": true
    },
    "experience": {
      "type": "string",
      "required": true
    },
    "status": {
      "type": "number"
    },
    "addedOn": {
      "type": "date"
    }
  },
  "validations": [],
  "relations": {
    "requisition": {
      "type": "belongsTo",
      "model": "Requisition",
      "foreignKey": "requisitionId"
    }
  },
  "acls": [],
  "methods": {}
}
